<svg width="24" height="24" viewBox="0 0 24 24" fill="none" xmlns="http://www.w3.org/2000/svg">
<circle cx="12" cy="12" r="7" fill="#8C40FF" fill-opacity="0.1" stroke="#D1B3FF" stroke-width="2"/>
<circle cx="12" cy="12" r="4" fill="#D1B3FF"/>
</svg>
