<svg width="161" height="37" viewBox="0 0 161 37" fill="none" xmlns="http://www.w3.org/2000/svg">
<path d="M2.4798 9.84204H2.47649C1.10876 9.84204 0 10.9429 0 12.3009V27.064C0 28.422 1.10876 29.5229 2.47649 29.5229H2.4798C3.84753 29.5229 4.95629 28.422 4.95629 27.064V12.3009C4.95629 10.9429 3.84753 9.84204 2.4798 9.84204Z" fill="#8C40FF"/>
<path d="M12.3924 4.92102H12.3891C11.0214 4.92102 9.9126 6.0219 9.9126 7.37989V22.143C9.9126 23.501 11.0214 24.6019 12.3891 24.6019H12.3924C13.7601 24.6019 14.8689 23.501 14.8689 22.143V7.37989C14.8689 6.0219 13.7601 4.92102 12.3924 4.92102Z" fill="#BA8CFF"/>
<path d="M22.3016 9.84204H22.2983C20.9306 9.84204 19.8218 10.9429 19.8218 12.3009V17.2252C19.8218 18.5832 20.9306 19.6841 22.2983 19.6841H22.3016C23.6694 19.6841 24.7781 18.5832 24.7781 17.2252V12.3009C24.7781 10.9429 23.6694 9.84204 22.3016 9.84204Z" fill="#8C40FF"/>
<path d="M32.2142 14.7631H32.2109C30.8432 14.7631 29.7344 15.8639 29.7344 17.2219V31.985C29.7344 33.343 30.8432 34.4439 32.2109 34.4439H32.2142C33.582 34.4439 34.6907 33.343 34.6907 31.985V17.2219C34.6907 15.8639 33.582 14.7631 32.2142 14.7631Z" fill="#BA8CFF"/>
<path d="M42.1268 0H42.1235C40.7558 0 39.647 1.10087 39.647 2.45887V22.143C39.647 23.501 40.7558 24.6019 42.1235 24.6019H42.1268C43.4946 24.6019 44.6033 23.501 44.6033 22.143V2.45887C44.6033 1.10087 43.4946 0 42.1268 0Z" fill="#8C40FF"/>
<path d="M70.3701 28.9648C70.2134 28.9703 70.0573 28.9437 69.9114 28.8868C69.7655 28.8299 69.633 28.7438 69.522 28.6339C69.411 28.524 69.3239 28.3927 69.2662 28.248C69.2085 28.1033 69.1813 27.9483 69.1864 27.7928V6.65108C69.1813 6.49553 69.2085 6.34061 69.2662 6.19591C69.3239 6.05122 69.411 5.91985 69.522 5.80996C69.633 5.70007 69.7655 5.61399 69.9114 5.55708C70.0573 5.50016 70.2134 5.47362 70.3701 5.4791H75.819C77.4499 5.45995 79.0694 5.75079 80.5902 6.33593C81.9938 6.88075 83.2674 7.7104 84.3297 8.77182C85.3844 9.83101 86.2132 11.0905 86.7665 12.4749C87.3546 13.9827 87.6442 15.5889 87.6196 17.2055C87.6391 18.8248 87.3462 20.4328 86.7566 21.9427C86.2079 23.3373 85.3788 24.6062 84.3198 25.6721C83.2567 26.7324 81.9832 27.5619 80.5803 28.1079C79.0595 28.6931 77.44 28.9839 75.8091 28.9648H70.3701ZM71.5505 26.8605H75.819C77.5443 26.8937 79.2462 26.4602 80.7423 25.6064C82.1523 24.7892 83.3096 23.6038 84.0883 22.1791C84.916 20.6519 85.3349 18.9394 85.3051 17.2055C85.3371 15.4711 84.9204 13.7576 84.095 12.2287C83.3156 10.8065 82.1552 9.62601 80.7423 8.81778C79.2427 7.97453 77.542 7.54812 75.819 7.58342H71.5505V26.8605Z" fill="#BA8CFF"/>
<path d="M98.2232 29.1158C96.7044 29.1445 95.2047 28.7754 93.8753 28.0456C92.6262 27.3543 91.5958 26.3312 90.8995 25.091C90.1666 23.7656 89.7961 22.2727 89.8249 20.7609C89.7956 19.2502 90.1468 17.7561 90.8466 16.4144C91.4947 15.1957 92.4637 14.1745 93.6504 13.4598C94.8944 12.7259 96.3202 12.3518 97.7669 12.3797C99.1762 12.3462 100.567 12.7056 101.781 13.4171C102.917 14.107 103.834 15.1016 104.426 16.2863C105.068 17.5869 105.389 19.0206 105.362 20.4687C105.368 20.61 105.345 20.7512 105.293 20.883C105.241 21.0148 105.162 21.1342 105.061 21.2336C104.847 21.4284 104.564 21.5311 104.274 21.5192H97.8694C97.6125 21.5192 97.3661 21.4179 97.1844 21.2375C97.0027 21.0571 96.9006 20.8125 96.9006 20.5573C96.8989 20.4299 96.9226 20.3034 96.9705 20.1852C97.0184 20.067 97.0895 19.9594 97.1797 19.8687C97.2698 19.778 97.3772 19.7059 97.4956 19.6568C97.614 19.6076 97.7411 19.5823 97.8694 19.5823H104.509L103.206 20.5147C103.246 19.4423 103.033 18.3755 102.584 17.3992C102.172 16.5145 101.515 15.7643 100.69 15.2358C99.814 14.6948 98.798 14.4198 97.7669 14.4446C96.701 14.421 95.6507 14.7025 94.7416 15.2555C93.8706 15.7987 93.1715 16.5747 92.7247 17.4944C92.2367 18.5129 91.9934 19.6299 92.0138 20.7576C91.9908 21.891 92.2679 23.0106 92.8172 24.0044C93.3336 24.9292 94.0922 25.6982 95.0127 26.2302C95.9889 26.785 97.0985 27.0663 98.2232 27.0443C98.971 27.0396 99.7128 26.9121 100.419 26.6668C101.064 26.4663 101.666 26.1454 102.191 25.7213C102.404 25.544 102.67 25.4433 102.948 25.4357C103.21 25.4189 103.469 25.4983 103.675 25.6589C103.793 25.755 103.89 25.8738 103.96 26.0081C104.029 26.1425 104.071 26.2895 104.082 26.4403C104.087 26.5795 104.058 26.7178 103.998 26.8435C103.937 26.9693 103.847 27.0787 103.735 27.1625C102.973 27.7762 102.106 28.2498 101.176 28.561C100.232 28.915 99.2324 29.1028 98.2232 29.1158Z" fill="#BA8CFF"/>
<path d="M115.962 29.1158C114.443 29.1445 112.944 28.7754 111.614 28.0456C110.366 27.3533 109.336 26.3305 108.638 25.091C107.905 23.7656 107.535 22.2727 107.564 20.7609C107.534 19.2497 107.886 17.7553 108.589 16.4144C109.235 15.1952 110.203 14.1738 111.389 13.4598C112.633 12.7259 114.059 12.3518 115.506 12.3797C116.915 12.3462 118.306 12.7056 119.52 13.4171C120.656 14.107 121.573 15.1016 122.165 16.2863C122.807 17.5869 123.128 19.0206 123.101 20.4687C123.107 20.61 123.084 20.7512 123.032 20.883C122.98 21.0148 122.901 21.1342 122.8 21.2336C122.586 21.4284 122.303 21.5311 122.013 21.5192H115.622C115.365 21.5192 115.118 21.4179 114.936 21.2375C114.755 21.0571 114.653 20.8125 114.653 20.5573C114.653 20.3022 114.755 20.0576 114.936 19.8772C115.118 19.6968 115.365 19.5955 115.622 19.5955H122.261L120.958 20.5278C120.996 19.45 120.778 18.3784 120.323 17.3992C119.912 16.5138 119.255 15.7633 118.429 15.2358C117.553 14.6948 116.537 14.4198 115.506 14.4446C114.44 14.421 113.39 14.7025 112.48 15.2555C111.609 15.7987 110.91 16.5747 110.464 17.4944C109.976 18.5129 109.732 19.6299 109.753 20.7576C109.73 21.891 110.007 23.0106 110.556 24.0044C111.072 24.9276 111.829 25.6954 112.748 26.2269C113.725 26.7817 114.834 27.0631 115.959 27.041C116.707 27.0363 117.448 26.9088 118.154 26.6635C118.8 26.463 119.402 26.1421 119.926 25.718C120.139 25.5407 120.406 25.44 120.684 25.4324C120.946 25.4153 121.205 25.4948 121.411 25.6557C121.529 25.7517 121.625 25.8706 121.695 26.0049C121.765 26.1392 121.807 26.2862 121.818 26.437C121.823 26.5762 121.794 26.7145 121.733 26.8403C121.673 26.966 121.583 27.0754 121.471 27.1592C120.712 27.7716 119.85 28.2451 118.925 28.5577C117.977 28.914 116.975 29.1029 115.962 29.1158Z" fill="#BA8CFF"/>
<path d="M126.635 36C126.477 36.0129 126.318 35.9914 126.168 35.9371C126.019 35.8828 125.884 35.7969 125.772 35.6854C125.659 35.5738 125.573 35.4394 125.518 35.2913C125.463 35.1433 125.442 34.9852 125.455 34.828V20.6361C125.45 19.1549 125.839 17.6987 126.582 16.4143C127.302 15.1839 128.336 14.1645 129.581 13.4598C130.899 12.744 132.377 12.3688 133.879 12.3688C135.382 12.3688 136.86 12.744 138.178 13.4598C139.429 14.1757 140.466 15.209 141.183 16.4537C141.933 17.7632 142.315 19.2483 142.291 20.7543C142.313 22.246 141.942 23.7174 141.213 25.022C140.516 26.2801 139.487 27.3257 138.236 28.0464C136.985 28.7672 135.56 29.1357 134.114 29.1125C132.835 29.1311 131.571 28.8357 130.434 28.2524C129.381 27.7194 128.473 26.941 127.789 25.9839V34.8247C127.796 34.9823 127.77 35.1397 127.713 35.287C127.656 35.4343 127.569 35.5686 127.458 35.6815C127.35 35.7869 127.221 35.8694 127.079 35.9242C126.938 35.9789 126.787 36.0047 126.635 36ZM133.843 27.0082C134.948 27.0259 136.037 26.7457 136.994 26.1973C137.919 25.6655 138.682 24.8939 139.199 23.965C139.727 22.9758 140.003 21.8735 140.003 20.7543C140.003 19.6351 139.727 18.5328 139.199 17.5436C138.672 16.5995 137.896 15.8156 136.954 15.2755C136.012 14.7354 134.94 14.4596 133.853 14.4774C132.774 14.4644 131.712 14.7428 130.78 15.2829C129.848 15.823 129.082 16.6044 128.563 17.5436C128.026 18.5311 127.755 19.6391 127.776 20.7609C127.751 21.8757 128.013 22.9784 128.536 23.965C129.042 24.8964 129.798 25.6711 130.719 26.2039C131.665 26.7477 132.743 27.0257 133.836 27.0082H133.843Z" fill="#BA8CFF"/>
<path d="M160 20.0912V27.9307C160.002 28.0816 159.973 28.2314 159.916 28.3712C159.858 28.511 159.773 28.638 159.666 28.7447C159.558 28.8515 159.431 28.9358 159.29 28.9928C159.149 29.0497 158.998 29.0782 158.846 29.0764C158.689 29.0827 158.532 29.0568 158.385 29.0003C158.238 28.9439 158.105 28.858 157.993 28.7481C157.885 28.6419 157.8 28.5149 157.743 28.3749C157.686 28.2349 157.659 28.0849 157.662 27.934V20.0912C157.705 19.0209 157.458 17.9588 156.948 17.0151C156.497 16.2339 155.821 15.6041 155.007 15.2063C154.162 14.8105 153.239 14.6053 152.304 14.6053C151.37 14.6053 150.447 14.8105 149.601 15.2063C148.787 15.6041 148.11 16.2338 147.657 17.0151C147.147 17.9588 146.9 19.0209 146.943 20.0912V27.9307C146.947 28.0816 146.919 28.2316 146.862 28.3716C146.805 28.5116 146.72 28.6386 146.612 28.7448C146.501 28.8543 146.368 28.9399 146.222 28.9964C146.076 29.0528 145.919 29.079 145.763 29.0731C145.611 29.0749 145.46 29.0464 145.319 28.9895C145.178 28.9325 145.05 28.8482 144.943 28.7415C144.835 28.6347 144.75 28.5077 144.693 28.3679C144.636 28.2281 144.607 28.0783 144.609 27.9274V20.0912C144.564 18.6317 144.906 17.1861 145.601 15.8989C146.222 14.7885 147.156 13.8825 148.289 13.2923C149.482 12.6849 150.807 12.3793 152.147 12.4027H152.478C153.817 12.3797 155.141 12.6853 156.333 13.2923C157.466 13.8825 158.4 14.7885 159.021 15.8989C159.711 17.1874 160.049 18.6328 160 20.0912Z" fill="#BA8CFF"/>
</svg>
